alu_tb.vcd
$date
	Fri May  8 16:43:00 2026
$end

$version
	Synopsys VCS version Q-2020.03-SP2-8_Full64
$end

$timescale
	1s
$end

$comment Csum: 1 de43a52a62826e2d $end


$scope module alu_testbench $end
$var reg 8 ! OPA [7:0] $end
$var reg 8 " OPB [7:0] $end
$var reg 1 # CLK $end
$var reg 1 $ RST $end
$var reg 1 % CE $end
$var reg 1 & MODE $end
$var reg 1 ' CIN $end
$var reg 2 ( inp_valid [1:0] $end
$var reg 4 ) CMD [3:0] $end
$var wire 16 * RES_dut [15:0] $end
$var wire 1 + COUT_dut $end
$var wire 1 , OFLOW_dut $end
$var wire 1 - G_dut $end
$var wire 1 . E_dut $end
$var wire 1 / L_dut $end
$var wire 1 0 ERR_dut $end
$var wire 16 1 RES_ref [15:0] $end
$var wire 1 2 COUT_ref $end
$var wire 1 3 OFLOW_ref $end
$var wire 1 4 G_ref $end
$var wire 1 5 E_ref $end
$var wire 1 6 L_ref $end
$var wire 1 7 ERR_ref $end
$var integer 32 8 pass_count $end
$var integer 32 9 fail_count $end

$scope task compare $end
$var reg 640 : name [640:1] $end
$upscope $end


$scope task apply $end
$var reg 8 ; a [7:0] $end
$var reg 8 < b [7:0] $end
$var reg 4 = cmd [3:0] $end
$var reg 1 > mode $end
$var reg 2 ? valid [1:0] $end
$var reg 1 @ cin $end
$var reg 640 A name [640:1] $end
$upscope $end


$scope task apply_mul $end
$var reg 8 B a [7:0] $end
$var reg 8 C b [7:0] $end
$var reg 4 D cmd [3:0] $end
$var reg 1 E mode $end
$var reg 2 F valid [1:0] $end
$var reg 1 G cin $end
$var reg 640 H name [640:1] $end
$upscope $end


$scope module dut $end
$var wire 1 # CLK $end
$var wire 1 $ RST $end
$var wire 2 ( INP_VALID [1:0] $end
$var wire 1 & MODE $end
$var wire 4 ) CMD [3:0] $end
$var wire 1 % CE $end
$var wire 8 ! OPA [7:0] $end
$var wire 8 " OPB [7:0] $end
$var wire 1 ' CIN $end
$var reg 1 0 ERR $end
$var reg 16 * RES [15:0] $end
$var reg 1 , OFLOW $end
$var reg 1 + COUT $end
$var reg 1 - G $end
$var reg 1 / L $end
$var reg 1 . E $end
$var reg 2 I cnt_9 [1:0] $end
$var reg 2 J cnt_10 [1:0] $end
$var reg 8 K OPA_1 [7:0] $end
$var reg 8 L OPB_1 [7:0] $end
$var reg 8 M OPA_L1 [7:0] $end
$var wire 8 N sOPA [7:0] $end
$var wire 8 O sOPB [7:0] $end
$var wire 8 P s_add [7:0] $end
$var wire 8 Q s_sub [7:0] $end
$upscope $end


$scope module ref_mod $end
$var wire 1 # clk $end
$var wire 1 $ rst $end
$var wire 1 % CE $end
$var wire 8 ! OPA [7:0] $end
$var wire 8 " OPB [7:0] $end
$var wire 1 ' CIN $end
$var wire 1 & MODE $end
$var wire 4 ) CMD [3:0] $end
$var wire 2 ( inp_valid [1:0] $end
$var reg 16 1 RES [15:0] $end
$var reg 1 2 COUT $end
$var reg 1 3 OFLOW $end
$var reg 1 4 G $end
$var reg 1 5 E $end
$var reg 1 6 L $end
$var reg 1 7 ERR $end
$var reg 8 R OPA_1 [7:0] $end
$var reg 8 S OPB_1 [7:0] $end
$var reg 16 T temp [15:0] $end
$var reg 8 U A_signed [7:0] $end
$var reg 8 V B_signed [7:0] $end
$var reg 16 W out [15:0] $end
$var reg 1 X temp_ERR $end
$upscope $end

$upscope $end

$enddefinitions $end

#0
$dumpvars
1%
0'
0#
0+
0.
00
0-
0/
0&
0,
1$
x@
x>
xG
xE
02
05
07
04
06
03
xX
bxxxxxxxx U
bxxxxxxxx V
b0000 )
b00000000 !
bxxxxxxxx K
bxxxxxxxx M
b00000000 "
bxxxxxxxx L
b0000000000000000 *
bxxxxxxxx ;
bxxxxxxxx <
bxxxx =
bxxxxxxxxxxxxxxxxxxxxxxxxxxxxxxxxxxxxxxxxxxxxxxxxxxxxxxxxxxxxxxxxxxxxxxxxxxxxxxxxxxxxxxxxxxxxxxxxxxxxxxxxxxxxxxxxxxxxxxxxxxxxxxxxxxxxxxxxxxxxxxxxxxxxxxxxxxxxxxxxxxxxxxxxxxxxxxxxxxxxxxxxxxxxxxxxxxxxxxxxxxxxxxxxxxxxxxxxxxxxxxxxxxxxxxxxxxxxxxxxxxxxxxxxxxxxxxxxxxxxxxxxxxxxxxxxxxxxxxxxxxxxxxxxxxxxxxxxxxxxxxxxxxxxxxxxxxxxxxxxxxxxxxxxxxxxxxxxxxxxxxxxxxxxxxxxxxxxxxxxxxxxxxxxxxxxxxxxxxxxxxxxxxxxxxxxxxxxxxxxxxxxxxxxxxxxxxxxxxxxxxxxxxxxxxxxxxxxxxxxxxxxxxxxxxxxxxxxxxxxxxxxxxxxxxxxxxxxxxxxxxxxxxxxxxxxxxxxxxxxxxxxxxxxxxxxxxxxxxxxxxxxxxxxxxxxxxxxxxxxxxxxxxxxxxxxxxxxxxxxxxxxxxxxxxxxxxxxxxxxxxxxxxxxxxxxxxxxxxxxxxxxxxxxxxxxxxxxxxxxxxxxxxxxxxxxxxxxxxxx A
bxx ?
bxxxxxxxx B
bxxxxxxxx C
bxxxx D
bxxxxxxxxxxxxxxxxxxxxxxxxxxxxxxxxxxxxxxxxxxxxxxxxxxxxxxxxxxxxxxxxxxxxxxxxxxxxxxxxxxxxxxxxxxxxxxxxxxxxxxxxxxxxxxxxxxxxxxxxxxxxxxxxxxxxxxxxxxxxxxxxxxxxxxxxxxxxxxxxxxxxxxxxxxxxxxxxxxxxxxxxxxxxxxxxxxxxxxxxxxxxxxxxxxxxxxxxxxxxxxxxxxxxxxxxxxxxxxxxxxxxxxxxxxxxxxxxxxxxxxxxxxxxxxxxxxxxxxxxxxxxxxxxxxxxxxxxxxxxxxxxxxxxxxxxxxxxxxxxxxxxxxxxxxxxxxxxxxxxxxxxxxxxxxxxxxxxxxxxxxxxxxxxxxxxxxxxxxxxxxxxxxxxxxxxxxxxxxxxxxxxxxxxxxxxxxxxxxxxxxxxxxxxxxxxxxxxxxxxxxxxxxxxxxxxxxxxxxxxxxxxxxxxxxxxxxxxxxxxxxxxxxxxxxxxxxxxxxxxxxxxxxxxxxxxxxxxxxxxxxxxxxxxxxxxxxxxxxxxxxxxxxxxxxxxxxxxxxxxxxxxxxxxxxxxxxxxxxxxxxxxxxxxxxxxxxxxxxxxxxxxxxxxxxxxxxxxxxxxxxxxxxxxxxxxxxxxxxxx H
bxx F
b00 J
b00 I
bxxxxxxxxxxxxxxxxxxxxxxxxxxxxxxxxxxxxxxxxxxxxxxxxxxxxxxxxxxxxxxxxxxxxxxxxxxxxxxxxxxxxxxxxxxxxxxxxxxxxxxxxxxxxxxxxxxxxxxxxxxxxxxxxxxxxxxxxxxxxxxxxxxxxxxxxxxxxxxxxxxxxxxxxxxxxxxxxxxxxxxxxxxxxxxxxxxxxxxxxxxxxxxxxxxxxxxxxxxxxxxxxxxxxxxxxxxxxxxxxxxxxxxxxxxxxxxxxxxxxxxxxxxxxxxxxxxxxxxxxxxxxxxxxxxxxxxxxxxxxxxxxxxxxxxxxxxxxxxxxxxxxxxxxxxxxxxxxxxxxxxxxxxxxxxxxxxxxxxxxxxxxxxxxxxxxxxxxxxxxxxxxxxxxxxxxxxxxxxxxxxxxxxxxxxxxxxxxxxxxxxxxxxxxxxxxxxxxxxxxxxxxxxxxxxxxxxxxxxxxxxxxxxxxxxxxxxxxxxxxxxxxxxxxxxxxxxxxxxxxxxxxxxxxxxxxxxxxxxxxxxxxxxxxxxxxxxxxxxxxxxxxxxxxxxxxxxxxxxxxxxxxxxxxxxxxxxxxxxxxxxxxxxxxxxxxxxxxxxxxxxxxxxxxxxxxxxxxxxxxxxxxxxxxxxxxxxxxxxxx :
b00000000000000000000000000000000 9
b11 (
bxxxxxxxxxxxxxxxx W
b00000000000000000000000000000000 8
b0000000000000000 1
b00000000 N
b00000000 O
b00000000 P
b00000000 Q
bxxxxxxxxxxxxxxxx T
bxxxxxxxx S
bxxxxxxxx R
$end
#5
1#
#10
0#
#15
1#
0$
b00001111 ;
b00000001 <
b0000 =
1>
b11 ?
0@
b0000000000000000000000000000000000000000000000000000000000000000000000000000000000000000000000000000000000000000000000000000000000000000000000000000000000000000000000000000000000000000000000000000000000000000000000000000000000000000000000000000000000000000000000000000000000000000000000000000000000000000000000000000000000000000000000000000000000000000000000000000000000000000000000000000000000000000000000000000000000000000000000000000000000000000000000000000000000000000000000000000000000000000000000000000000000000000000000000000000000000000000000000000000000000000000000000000000000000000000000000000000000000000010000010100010001000100 A
b0000000000000000 T
#20
0#
#25
1#
b00001111 !
b00001111 N
b00001111 Q
b00001111 P
b00000001 "
b00000001 O
b00001110 Q
b00010000 P
1&
b0000000000010000 *
#30
0#
#35
1#
b0000000000000000000000000000000000000000000000000000000000000000000000000000000000000000000000000000000000000000000000000000000000000000000000000000000000000000000000000000000000000000000000000000000000000000000000000000000000000000000000000000000000000000000000000000000000000000000000000000000000000000000000000000000000000000000000000000000000000000000000000000000000000000000000000000000000000000000000000000000000000000000000000000000000000000000000000000000000000000000000000000000000000000000000000000000000000000000000000000000000000000000000000000000000000000000000000000000000000000000000000000000000000000010000010100010001000100 :
b00000000000000000000000000000001 9
b0001 =
b0000000000000000000000000000000000000000000000000000000000000000000000000000000000000000000000000000000000000000000000000000000000000000000000000000000000000000000000000000000000000000000000000000000000000000000000000000000000000000000000000000000000000000000000000000000000000000000000000000000000000000000000000000000000000000000000000000000000000000000000000000000000000000000000000000000000000000000000000000000000000000000000000000000000000000000000000000000000000000000000000000000000000000000000000000000000000000000000000000000000000000000000000000000000000000000000000000000000000000000000000000000000000000010100110101010101000010 A
b0000000000010000 T
#40
0#
#45
1#
b0001 )
b0000000000010000 1
b0000000000001110 *
#50
0#
#55
1#
b0000000000000000000000000000000000000000000000000000000000000000000000000000000000000000000000000000000000000000000000000000000000000000000000000000000000000000000000000000000000000000000000000000000000000000000000000000000000000000000000000000000000000000000000000000000000000000000000000000000000000000000000000000000000000000000000000000000000000000000000000000000000000000000000000000000000000000000000000000000000000000000000000000000000000000000000000000000000000000000000000000000000000000000000000000000000000000000000000000000000000000000000000000000000000000000000000000000000000000000000000000000000000000010100110101010101000010 :
b00000000000000000000000000000010 9
b0010 =
1@
b0000000000000000000000000000000000000000000000000000000000000000000000000000000000000000000000000000000000000000000000000000000000000000000000000000000000000000000000000000000000000000000000000000000000000000000000000000000000000000000000000000000000000000000000000000000000000000000000000000000000000000000000000000000000000000000000000000000000000000000000000000000000000000000000000000000000000000000000000000000000000000000000000000000000000000000000000000000000000000000000000000000000000000000000000000000000000000000000000000000000000000000000000000000000000000000000000000000001000001010001000100010001011111010000110100100101001110 A
b0000000000001110 T
#60
0#
#65
1#
b0010 )
1'
b0000000000001110 1
b0000000000010001 *
#70
0#
#75
1#
b0000000000000000000000000000000000000000000000000000000000000000000000000000000000000000000000000000000000000000000000000000000000000000000000000000000000000000000000000000000000000000000000000000000000000000000000000000000000000000000000000000000000000000000000000000000000000000000000000000000000000000000000000000000000000000000000000000000000000000000000000000000000000000000000000000000000000000000000000000000000000000000000000000000000000000000000000000000000000000000000000000000000000000000000000000000000000000000000000000000000000000000000000000000000000000000000000000000001000001010001000100010001011111010000110100100101001110 :
b00000000000000000000000000000011 9
b0011 =
b0000000000000000000000000000000000000000000000000000000000000000000000000000000000000000000000000000000000000000000000000000000000000000000000000000000000000000000000000000000000000000000000000000000000000000000000000000000000000000000000000000000000000000000000000000000000000000000000000000000000000000000000000000000000000000000000000000000000000000000000000000000000000000000000000000000000000000000000000000000000000000000000000000000000000000000000000000000000000000000000000000000000000000000000000000000000000000000000000000000000000000000000000000000000000000000000000000000001010011010101010100001001011111010000110100100101001110 A
b0000000000010001 T
#80
0#
#85
1#
b0011 )
b0000000000010001 1
b0000000000001101 *
#90
0#
#95
1#
b0000000000000000000000000000000000000000000000000000000000000000000000000000000000000000000000000000000000000000000000000000000000000000000000000000000000000000000000000000000000000000000000000000000000000000000000000000000000000000000000000000000000000000000000000000000000000000000000000000000000000000000000000000000000000000000000000000000000000000000000000000000000000000000000000000000000000000000000000000000000000000000000000000000000000000000000000000000000000000000000000000000000000000000000000000000000000000000000000000000000000000000000000000000000000000000000000000000001010011010101010100001001011111010000110100100101001110 :
b00000000000000000000000000000100 9
b00000000 <
b0100 =
b01 ?
0@
b0000000000000000000000000000000000000000000000000000000000000000000000000000000000000000000000000000000000000000000000000000000000000000000000000000000000000000000000000000000000000000000000000000000000000000000000000000000000000000000000000000000000000000000000000000000000000000000000000000000000000000000000000000000000000000000000000000000000000000000000000000000000000000000000000000000000000000000000000000000000000000000000000000000000000000000000000000000000000000000000000000000000000000000000000000000000000000000000000000000000000000000000000000000000000000000000000000000000000000000000000100100101001110010000110101111101000001 A
b0000000000001101 T
#100
0#
#105
1#
b00000000 "
b00000000 O
b00001111 Q
b00001111 P
b0100 )
b01 (
0'
b0000000000001101 1
b0000000000010000 *
#110
0#
#115
1#
b0000000000000000000000000000000000000000000000000000000000000000000000000000000000000000000000000000000000000000000000000000000000000000000000000000000000000000000000000000000000000000000000000000000000000000000000000000000000000000000000000000000000000000000000000000000000000000000000000000000000000000000000000000000000000000000000000000000000000000000000000000000000000000000000000000000000000000000000000000000000000000000000000000000000000000000000000000000000000000000000000000000000000000000000000000000000000000000000000000000000000000000000000000000000000000000000000000000000000000000000000100100101001110010000110101111101000001 :
b00000000000000000000000000000101 9
b0101 =
b0000000000000000000000000000000000000000000000000000000000000000000000000000000000000000000000000000000000000000000000000000000000000000000000000000000000000000000000000000000000000000000000000000000000000000000000000000000000000000000000000000000000000000000000000000000000000000000000000000000000000000000000000000000000000000000000000000000000000000000000000000000000000000000000000000000000000000000000000000000000000000000000000000000000000000000000000000000000000000000000000000000000000000000000000000000000000000000000000000000000000000000000000000000000000000000000000000000000000000000000000100010001000101010000110101111101000001 A
b0000000000010000 T
b0000000000010000 1
#120
0#
#125
1#
b0101 )
b0000000000001110 T
b0000000000001110 1
b0000000000001110 *
#130
0#
#135
1#
b0000000000000000000000000000000000000000000000000000000000000000000000000000000000000000000000000000000000000000000000000000000000000000000000000000000000000000000000000000000000000000000000000000000000000000000000000000000000000000000000000000000000000000000000000000000000000000000000000000000000000000000000000000000000000000000000000000000000000000000000000000000000000000000000000000000000000000000000000000000000000000000000000000000000000000000000000000000000000000000000000000000000000000000000000000000000000000000000000000000000000000000000000000000000000000000000000000000000000000000000000100010001000101010000110101111101000001 :
b00000000000000000000000000000001 8
b00000000 ;
b00001111 <
b0110 =
b10 ?
b0000000000000000000000000000000000000000000000000000000000000000000000000000000000000000000000000000000000000000000000000000000000000000000000000000000000000000000000000000000000000000000000000000000000000000000000000000000000000000000000000000000000000000000000000000000000000000000000000000000000000000000000000000000000000000000000000000000000000000000000000000000000000000000000000000000000000000000000000000000000000000000000000000000000000000000000000000000000000000000000000000000000000000000000000000000000000000000000000000000000000000000000000000000000000000000000000000000000000000000000000100100101001110010000110101111101000010 A
#140
0#
#145
1#
b00000000 !
b00000000 N
b00000000 Q
b00000000 P
b00001111 "
b00001111 O
b11110001 Q
b00001111 P
b0110 )
b10 (
b0000000000010000 T
b0000000000010000 *
#150
0#
#155
1#
b0000000000000000000000000000000000000000000000000000000000000000000000000000000000000000000000000000000000000000000000000000000000000000000000000000000000000000000000000000000000000000000000000000000000000000000000000000000000000000000000000000000000000000000000000000000000000000000000000000000000000000000000000000000000000000000000000000000000000000000000000000000000000000000000000000000000000000000000000000000000000000000000000000000000000000000000000000000000000000000000000000000000000000000000000000000000000000000000000000000000000000000000000000000000000000000000000000000000000000000000000100100101001110010000110101111101000010 :
b00000000000000000000000000000110 9
b0111 =
b0000000000000000000000000000000000000000000000000000000000000000000000000000000000000000000000000000000000000000000000000000000000000000000000000000000000000000000000000000000000000000000000000000000000000000000000000000000000000000000000000000000000000000000000000000000000000000000000000000000000000000000000000000000000000000000000000000000000000000000000000000000000000000000000000000000000000000000000000000000000000000000000000000000000000000000000000000000000000000000000000000000000000000000000000000000000000000000000000000000000000000000000000000000000000000000000000000000000000000000000000100010001000101010000110101111101000010 A
b0000000000010000 1
#160
0#
#165
1#
b0111 )
b0000000000001110 T
b0000000000001110 *
#170
0#
#175
1#
b0000000000000000000000000000000000000000000000000000000000000000000000000000000000000000000000000000000000000000000000000000000000000000000000000000000000000000000000000000000000000000000000000000000000000000000000000000000000000000000000000000000000000000000000000000000000000000000000000000000000000000000000000000000000000000000000000000000000000000000000000000000000000000000000000000000000000000000000000000000000000000000000000000000000000000000000000000000000000000000000000000000000000000000000000000000000000000000000000000000000000000000000000000000000000000000000000000000000000000000000000100010001000101010000110101111101000010 :
b00000000000000000000000000000111 9
b00001111 ;
b1000 =
b11 ?
b0000000000000000000000000000000000000000000000000000000000000000000000000000000000000000000000000000000000000000000000000000000000000000000000000000000000000000000000000000000000000000000000000000000000000000000000000000000000000000000000000000000000000000000000000000000000000000000000000000000000000000000000000000000000000000000000000000000000000000000000000000000000000000000000000000000000000000000000000000000000000000000000000000000000000000000000000000000000000000000000000000000000000000000000000000000000000000000000000000000000000000000000000000000000000000010000110100110101010000010111110110010101110001011101010110000101101100 A
b0000000000001110 1
#180
0#
#185
1#
b00001111 !
b00001111 N
b00000000 Q
b00011110 P
b1000 )
b11 (
1.
b0000000000000000 *
#190
0#
#195
1#
b0000000000000000000000000000000000000000000000000000000000000000000000000000000000000000000000000000000000000000000000000000000000000000000000000000000000000000000000000000000000000000000000000000000000000000000000000000000000000000000000000000000000000000000000000000000000000000000000000000000000000000000000000000000000000000000000000000000000000000000000000000000000000000000000000000000000000000000000000000000000000000000000000000000000000000000000000000000000000000000000000000000000000000000000000000000000000000000000000000000000000000000000000000000000000000010000110100110101010000010111110110010101110001011101010110000101101100 :
b00000000000000000000000000001000 9
b00011111 ;
b0000000000000000000000000000000000000000000000000000000000000000000000000000000000000000000000000000000000000000000000000000000000000000000000000000000000000000000000000000000000000000000000000000000000000000000000000000000000000000000000000000000000000000000000000000000000000000000000000000000000000000000000000000000000000000000000000000000000000000000000000000000000000000000000000000000000000000000000000000000000000000000000000000000000000000000000000000000000000000000000000000000000000000000000000000000000000000000000000000000000000000000000000100001101001101010100000101111101100111011100100110010101100001011101000110010101110010 A
15
#200
0#
#205
1#
b00011111 !
b00011111 N
b00010000 Q
b00101110 P
1-
0.
#210
0#
#215
1#
b0000000000000000000000000000000000000000000000000000000000000000000000000000000000000000000000000000000000000000000000000000000000000000000000000000000000000000000000000000000000000000000000000000000000000000000000000000000000000000000000000000000000000000000000000000000000000000000000000000000000000000000000000000000000000000000000000000000000000000000000000000000000000000000000000000000000000000000000000000000000000000000000000000000000000000000000000000000000000000000000000000000000000000000000000000000000000000000000000000000000000000000000000100001101001101010100000101111101100111011100100110010101100001011101000110010101110010 :
b00000000000000000000000000001001 9
b00001111 ;
b00011111 <
b0000000000000000000000000000000000000000000000000000000000000000000000000000000000000000000000000000000000000000000000000000000000000000000000000000000000000000000000000000000000000000000000000000000000000000000000000000000000000000000000000000000000000000000000000000000000000000000000000000000000000000000000000000000000000000000000000000000000000000000000000000000000000000000000000000000000000000000000000000000000000000000000000000000000000000000000000000000000000000000000000000000000000000000000000000000000000000000000000000000000000000000000000000000000000000000000000100001101001101010100000101111101101100011001010111001101110011 A
05
14
#220
0#
#225
1#
b00001111 !
b00001111 N
b00000000 Q
b00011110 P
b00011111 "
b00011111 O
b11110000 Q
b00101110 P
0-
1/
#230
0#
#235
1#
b0000000000000000000000000000000000000000000000000000000000000000000000000000000000000000000000000000000000000000000000000000000000000000000000000000000000000000000000000000000000000000000000000000000000000000000000000000000000000000000000000000000000000000000000000000000000000000000000000000000000000000000000000000000000000000000000000000000000000000000000000000000000000000000000000000000000000000000000000000000000000000000000000000000000000000000000000000000000000000000000000000000000000000000000000000000000000000000000000000000000000000000000000000000000000000000000000100001101001101010100000101111101101100011001010111001101110011 :
b00000000000000000000000000001010 9
b00000011 B
b00000100 C
b1001 D
1E
b11 F
0G
b0000000000000000000000000000000000000000000000000000000000000000000000000000000000000000000000000000000000000000000000000000000000000000000000000000000000000000000000000000000000000000000000000000000000000000000000000000000000000000000000000000000000000000000000000000000000000000000000000000000000000000000000000000000000000000000000000000000000000000000000000000000000000000000000000000000000000000000000000000000000000000000000000000000000000000000000000000000000000000000000000000000000000000000000000000000000000000000000000000000000000000000000000000000000000000000000000100001101001101010001000011100101011111010011010101010101001100 H
04
16
#240
0#
#245
1#
#246
b00000011 !
b00000011 N
b11100100 Q
b00100010 P
b00000100 "
b00000100 O
b11111111 Q
b00000111 P
b1001 )
#250
0#
#255
1#
0/
b01 I
#260
0#
#265
1#
b0000000000010100 T
b00000100 K
b00000101 L
b10 I
#270
0#
#275
1#
bxxxxxxxxxxxxxxxx 1
b00 I
b0000000000010100 *
#276
b0000000000000000000000000000000000000000000000000000000000000000000000000000000000000000000000000000000000000000000000000000000000000000000000000000000000000000000000000000000000000000000000000000000000000000000000000000000000000000000000000000000000000000000000000000000000000000000000000000000000000000000000000000000000000000000000000000000000000000000000000000000000000000000000000000000000000000000000000000000000000000000000000000000000000000000000000000000000000000000000000000000000000000000000000000000000000000000000000000000000000000000000000000000000000000000000000100001101001101010001000011100101011111010011010101010101001100 :
b00000000000000000000000000001011 9
b00000101 C
b1010 D
b0000000000000000000000000000000000000000000000000000000000000000000000000000000000000000000000000000000000000000000000000000000000000000000000000000000000000000000000000000000000000000000000000000000000000000000000000000000000000000000000000000000000000000000000000000000000000000000000000000000000000000000000000000000000000000000000000000000000000000000000000000000000000000000000000000000000000000000000000000000000000000000000000000000000000000000000000000000000000000000000000000000000000000000000000000000000000000000000000000000000000000000000000000000000000000010000110100110101000100001100010011000001011111010011010101010101001100 H
#280
0#
#285
1#
b0000000000010100 1
b01 I
b0000000000000000 *
#286
b00000101 "
b00000101 O
b11111110 Q
b00001000 P
b1010 )
#290
0#
#295
1#
b0000000000011110 T
b01 J
#300
0#
#305
1#
bxxxxxxxxxxxxxxxx 1
b00000110 M
b10 J
#310
0#
#315
1#
b0000000000011110 1
b00 J
b0000000000011110 *
#316
b0000000000000000000000000000000000000000000000000000000000000000000000000000000000000000000000000000000000000000000000000000000000000000000000000000000000000000000000000000000000000000000000000000000000000000000000000000000000000000000000000000000000000000000000000000000000000000000000000000000000000000000000000000000000000000000000000000000000000000000000000000000000000000000000000000000000000000000000000000000000000000000000000000000000000000000000000000000000000000000000000000000000000000000000000000000000000000000000000000000000000000000000000000000000000000010000110100110101000100001100010011000001011111010011010101010101001100 :
b00000000000000000000000000001100 9
b11111011 ;
b00000011 <
b1011 =
b0000000000000000000000000000000000000000000000000000000000000000000000000000000000000000000000000000000000000000000000000000000000000000000000000000000000000000000000000000000000000000000000000000000000000000000000000000000000000000000000000000000000000000000000000000000000000000000000000000000000000000000000000000000000000000000000000000000000000000000000000000000000000000000000000000000000000000000000000000000000000000000000000000000000000000000000000000000000000000000000000000000000000000000000000000000000000000000000000000000000000000000000000000000000000000000000000000000000000000000000000000000001010011010000010100010001000100 A
#320
0#
#325
1#
b11111011 !
b11111011 N
b11110110 Q
b00000000 P
b00000011 "
b00000011 O
b11111000 Q
b11111110 P
b1011 )
b11111011 U
b00000011 V
b1111111111111110 T
b1111111111111110 W
b0000000011111110 *
#330
0#
#335
1#
b0000000000000000000000000000000000000000000000000000000000000000000000000000000000000000000000000000000000000000000000000000000000000000000000000000000000000000000000000000000000000000000000000000000000000000000000000000000000000000000000000000000000000000000000000000000000000000000000000000000000000000000000000000000000000000000000000000000000000000000000000000000000000000000000000000000000000000000000000000000000000000000000000000000000000000000000000000000000000000000000000000000000000000000000000000000000000000000000000000000000000000000000000000000000000000000000000000000000000000000000000000000001010011010000010100010001000100 :
b00000000000000000000000000001101 9
b1100 =
b0000000000000000000000000000000000000000000000000000000000000000000000000000000000000000000000000000000000000000000000000000000000000000000000000000000000000000000000000000000000000000000000000000000000000000000000000000000000000000000000000000000000000000000000000000000000000000000000000000000000000000000000000000000000000000000000000000000000000000000000000000000000000000000000000000000000000000000000000000000000000000000000000000000000000000000000000000000000000000000000000000000000000000000000000000000000000000000000000000000000000000000000000000000000000000000000000000000000000000000000000000000001010011010100110101010101000010 A
b1111111111111110 1
#340
0#
#345
1#
b1100 )
b1111111111111000 T
b1111111111111000 W
b0000000011111000 *
#350
0#
#355
1#
b0000000000000000000000000000000000000000000000000000000000000000000000000000000000000000000000000000000000000000000000000000000000000000000000000000000000000000000000000000000000000000000000000000000000000000000000000000000000000000000000000000000000000000000000000000000000000000000000000000000000000000000000000000000000000000000000000000000000000000000000000000000000000000000000000000000000000000000000000000000000000000000000000000000000000000000000000000000000000000000000000000000000000000000000000000000000000000000000000000000000000000000000000000000000000000000000000000000000000000000000000000000001010011010100110101010101000010 :
b00000000000000000000000000001110 9
b00001111 ;
b00000001 <
b0000 =
b00 ?
b0000000000000000000000000000000000000000000000000000000000000000000000000000000000000000000000000000000000000000000000000000000000000000000000000000000000000000000000000000000000000000000000000000000000000000000000000000000000000000000000000000000000000000000000000000000000000000000000000000000000000000000000000000000000000000000000000000000000000000000000000000000000000000000000000000000000000000000000000000000000000000000000000000000000000000000000000000000000000000000000000000000000000000000000000000000000000000000000000000000000000000000000000100010101010010010100100101111101101001011011100111011001100001011011000110100101100100 A
b1111111111111000 1
#360
0#
#365
1#
b00001111 !
b00001111 N
b00001100 Q
b00010010 P
b00000001 "
b00000001 O
b00001110 Q
b00010000 P
b0000 )
b00 (
17
10
b0000000000000000 *
#370
0#
#375
1#
b0000000000000000000000000000000000000000000000000000000000000000000000000000000000000000000000000000000000000000000000000000000000000000000000000000000000000000000000000000000000000000000000000000000000000000000000000000000000000000000000000000000000000000000000000000000000000000000000000000000000000000000000000000000000000000000000000000000000000000000000000000000000000000000000000000000000000000000000000000000000000000000000000000000000000000000000000000000000000000000000000000000000000000000000000000000000000000000000000000000000000000000000000100010101010010010100100101111101101001011011100111011001100001011011000110100101100100 :
b00000000000000000000000000001111 9
b11110000 ;
b00001111 <
0>
b11 ?
b0000000000000000000000000000000000000000000000000000000000000000000000000000000000000000000000000000000000000000000000000000000000000000000000000000000000000000000000000000000000000000000000000000000000000000000000000000000000000000000000000000000000000000000000000000000000000000000000000000000000000000000000000000000000000000000000000000000000000000000000000000000000000000000000000000000000000000000000000000000000000000000000000000000000000000000000000000000000000000000000000000000000000000000000000000000000000000000000000000000000000000000000000000000000000000000000000000000000000000000000000000000000000000010000010100111001000100 A
#380
0#
#385
1#
b11110000 !
b11110000 N
b11101111 Q
b11110001 P
b00001111 "
b00001111 O
b11100001 Q
b11111111 P
0&
b11 (
b0000000000000000 T
00
#390
0#
#395
1#
b0000000000000000000000000000000000000000000000000000000000000000000000000000000000000000000000000000000000000000000000000000000000000000000000000000000000000000000000000000000000000000000000000000000000000000000000000000000000000000000000000000000000000000000000000000000000000000000000000000000000000000000000000000000000000000000000000000000000000000000000000000000000000000000000000000000000000000000000000000000000000000000000000000000000000000000000000000000000000000000000000000000000000000000000000000000000000000000000000000000000000000000000000000000000000000000000000000000000000000000000000000000000000000010000010100111001000100 :
b00000000000000000000000000010000 9
b0001 =
b0000000000000000000000000000000000000000000000000000000000000000000000000000000000000000000000000000000000000000000000000000000000000000000000000000000000000000000000000000000000000000000000000000000000000000000000000000000000000000000000000000000000000000000000000000000000000000000000000000000000000000000000000000000000000000000000000000000000000000000000000000000000000000000000000000000000000000000000000000000000000000000000000000000000000000000000000000000000000000000000000000000000000000000000000000000000000000000000000000000000000000000000000000000000000000000000000000000000000000000000000000000001001110010000010100111001000100 A
b0000000000000000 1
#400
0#
#405
1#
b0001 )
b0000000011111111 T
b1111111111111111 *
#410
0#
#415
1#
b0000000000000000000000000000000000000000000000000000000000000000000000000000000000000000000000000000000000000000000000000000000000000000000000000000000000000000000000000000000000000000000000000000000000000000000000000000000000000000000000000000000000000000000000000000000000000000000000000000000000000000000000000000000000000000000000000000000000000000000000000000000000000000000000000000000000000000000000000000000000000000000000000000000000000000000000000000000000000000000000000000000000000000000000000000000000000000000000000000000000000000000000000000000000000000000000000000000000000000000000000000000001001110010000010100111001000100 :
b00000000000000000000000000010001 9
b0010 =
b0000000000000000000000000000000000000000000000000000000000000000000000000000000000000000000000000000000000000000000000000000000000000000000000000000000000000000000000000000000000000000000000000000000000000000000000000000000000000000000000000000000000000000000000000000000000000000000000000000000000000000000000000000000000000000000000000000000000000000000000000000000000000000000000000000000000000000000000000000000000000000000000000000000000000000000000000000000000000000000000000000000000000000000000000000000000000000000000000000000000000000000000000000000000000000000000000000000000000000000000000000000000000000000000000100111101010010 A
b0000000011111111 1
#420
0#
#425
1#
b0010 )
b0000000011111111 *
#430
0#
#435
1#
b0000000000000000000000000000000000000000000000000000000000000000000000000000000000000000000000000000000000000000000000000000000000000000000000000000000000000000000000000000000000000000000000000000000000000000000000000000000000000000000000000000000000000000000000000000000000000000000000000000000000000000000000000000000000000000000000000000000000000000000000000000000000000000000000000000000000000000000000000000000000000000000000000000000000000000000000000000000000000000000000000000000000000000000000000000000000000000000000000000000000000000000000000000000000000000000000000000000000000000000000000000000000000000000000000100111101010010 :
b00000000000000000000000000010010 9
b0011 =
b0000000000000000000000000000000000000000000000000000000000000000000000000000000000000000000000000000000000000000000000000000000000000000000000000000000000000000000000000000000000000000000000000000000000000000000000000000000000000000000000000000000000000000000000000000000000000000000000000000000000000000000000000000000000000000000000000000000000000000000000000000000000000000000000000000000000000000000000000000000000000000000000000000000000000000000000000000000000000000000000000000000000000000000000000000000000000000000000000000000000000000000000000000000000000000000000000000000000000000000000000000000000000000010011100100111101010010 A
#440
0#
#445
1#
b0011 )
b0000000000000000 T
b1111111100000000 *
#450
0#
