alu_test.vcd
$date
	Fri May  8 15:09:31 2026
$end

$version
	Synopsys VCS version Q-2020.03-SP2-8_Full64
$end

$timescale
	1s
$end

$comment Csum: 1 81bffb007f98a410 $end


$scope module alu_testbench $end
$var reg 8 ! OPA [7:0] $end
$var reg 8 " OPB [7:0] $end
$var reg 1 # CLK $end
$var reg 1 $ RST $end
$var reg 1 % CE $end
$var reg 1 & MODE $end
$var reg 1 ' CIN $end
$var reg 2 ( inp_valid [1:0] $end
$var reg 4 ) CMD [3:0] $end
$var wire 16 * RES_dut [15:0] $end
$var wire 1 + COUT_dut $end
$var wire 1 , OFLOW_dut $end
$var wire 1 - G_dut $end
$var wire 1 . E_dut $end
$var wire 1 / L_dut $end
$var wire 1 0 ERR_dut $end
$var wire 16 1 RES_ref [15:0] $end
$var wire 1 2 COUT_ref $end
$var wire 1 3 OFLOW_ref $end
$var wire 1 4 G_ref $end
$var wire 1 5 E_ref $end
$var wire 1 6 L_ref $end
$var wire 1 7 ERR_ref $end
$var integer 32 8 pass_count $end
$var integer 32 9 fail_count $end
$var integer 32 : test_count $end
$var reg 1 ; match $end

$scope task compare_outputs $end
$var reg 1 < result $end
$upscope $end


$scope task display_mismatch $end
$upscope $end


$scope task apply_test $end
$var reg 8 = a [7:0] $end
$var reg 8 > b [7:0] $end
$var reg 4 ? cmd [3:0] $end
$var reg 2 @ valid [1:0] $end
$var reg 1 A cin $end
$var reg 640 B test_name [640:1] $end
$upscope $end


$scope task apply_test_mul $end
$var reg 8 C a [7:0] $end
$var reg 8 D b [7:0] $end
$var reg 4 E cmd [3:0] $end
$var reg 2 F valid [1:0] $end
$var reg 1 G cin $end
$var reg 640 H test_name [640:1] $end
$upscope $end


$scope task test_arithmetic $end
$upscope $end


$scope task test_logical $end
$upscope $end


$scope module dut $end
$var wire 1 # CLK $end
$var wire 1 $ RST $end
$var wire 2 ( INP_VALID [1:0] $end
$var wire 1 & MODE $end
$var wire 4 ) CMD [3:0] $end
$var wire 1 % CE $end
$var wire 8 ! OPA [7:0] $end
$var wire 8 " OPB [7:0] $end
$var wire 1 ' CIN $end
$var reg 1 0 ERR $end
$var reg 16 * RES [15:0] $end
$var reg 1 , OFLOW $end
$var reg 1 + COUT $end
$var reg 1 - G $end
$var reg 1 / L $end
$var reg 1 . E $end
$var reg 2 I cnt_9 [1:0] $end
$var reg 2 J cnt_10 [1:0] $end
$var reg 8 K OPA_1 [7:0] $end
$var reg 8 L OPB_1 [7:0] $end
$var reg 8 M OPA_L1 [7:0] $end
$var wire 8 N sOPA [7:0] $end
$var wire 8 O sOPB [7:0] $end
$var wire 8 P s_add [7:0] $end
$var wire 8 Q s_sub [7:0] $end
$upscope $end


$scope module ref_mod $end
$var wire 1 # clk $end
$var wire 1 $ rst $end
$var wire 1 % CE $end
$var wire 8 ! OPA [7:0] $end
$var wire 8 " OPB [7:0] $end
$var wire 1 ' CIN $end
$var wire 1 & MODE $end
$var wire 4 ) CMD [3:0] $end
$var wire 2 ( inp_valid [1:0] $end
$var reg 16 1 RES [15:0] $end
$var reg 1 2 COUT $end
$var reg 1 3 OFLOW $end
$var reg 1 4 G $end
$var reg 1 5 E $end
$var reg 1 6 L $end
$var reg 1 7 ERR $end
$var reg 8 R OPA_1 [7:0] $end
$var reg 8 S OPB_1 [7:0] $end
$var reg 16 T temp [15:0] $end
$var reg 8 U A_signed [7:0] $end
$var reg 8 V B_signed [7:0] $end
$var reg 16 W out [15:0] $end
$var reg 1 X temp_ERR $end
$upscope $end

$upscope $end

$enddefinitions $end

#0
$dumpvars
1%
0'
0#
0+
0.
00
0-
0/
0&
0,
1$
xA
xG
x<
x;
02
05
07
04
06
03
xX
bxxxxxxxx U
bxxxxxxxx V
b0000 )
b00000000 !
bxxxxxxxx K
bxxxxxxxx M
b00000000 "
bxxxxxxxx L
b0000000000000000 *
bxxxxxxxx =
bxxxxxxxx >
bxxxx ?
bxxxxxxxxxxxxxxxxxxxxxxxxxxxxxxxxxxxxxxxxxxxxxxxxxxxxxxxxxxxxxxxxxxxxxxxxxxxxxxxxxxxxxxxxxxxxxxxxxxxxxxxxxxxxxxxxxxxxxxxxxxxxxxxxxxxxxxxxxxxxxxxxxxxxxxxxxxxxxxxxxxxxxxxxxxxxxxxxxxxxxxxxxxxxxxxxxxxxxxxxxxxxxxxxxxxxxxxxxxxxxxxxxxxxxxxxxxxxxxxxxxxxxxxxxxxxxxxxxxxxxxxxxxxxxxxxxxxxxxxxxxxxxxxxxxxxxxxxxxxxxxxxxxxxxxxxxxxxxxxxxxxxxxxxxxxxxxxxxxxxxxxxxxxxxxxxxxxxxxxxxxxxxxxxxxxxxxxxxxxxxxxxxxxxxxxxxxxxxxxxxxxxxxxxxxxxxxxxxxxxxxxxxxxxxxxxxxxxxxxxxxxxxxxxxxxxxxxxxxxxxxxxxxxxxxxxxxxxxxxxxxxxxxxxxxxxxxxxxxxxxxxxxxxxxxxxxxxxxxxxxxxxxxxxxxxxxxxxxxxxxxxxxxxxxxxxxxxxxxxxxxxxxxxxxxxxxxxxxxxxxxxxxxxxxxxxxxxxxxxxxxxxxxxxxxxxxxxxxxxxxxxxxxxxxxxxxxxxxxxx B
bxx @
bxxxxxxxx C
bxxxxxxxx D
bxxxx E
bxxxxxxxxxxxxxxxxxxxxxxxxxxxxxxxxxxxxxxxxxxxxxxxxxxxxxxxxxxxxxxxxxxxxxxxxxxxxxxxxxxxxxxxxxxxxxxxxxxxxxxxxxxxxxxxxxxxxxxxxxxxxxxxxxxxxxxxxxxxxxxxxxxxxxxxxxxxxxxxxxxxxxxxxxxxxxxxxxxxxxxxxxxxxxxxxxxxxxxxxxxxxxxxxxxxxxxxxxxxxxxxxxxxxxxxxxxxxxxxxxxxxxxxxxxxxxxxxxxxxxxxxxxxxxxxxxxxxxxxxxxxxxxxxxxxxxxxxxxxxxxxxxxxxxxxxxxxxxxxxxxxxxxxxxxxxxxxxxxxxxxxxxxxxxxxxxxxxxxxxxxxxxxxxxxxxxxxxxxxxxxxxxxxxxxxxxxxxxxxxxxxxxxxxxxxxxxxxxxxxxxxxxxxxxxxxxxxxxxxxxxxxxxxxxxxxxxxxxxxxxxxxxxxxxxxxxxxxxxxxxxxxxxxxxxxxxxxxxxxxxxxxxxxxxxxxxxxxxxxxxxxxxxxxxxxxxxxxxxxxxxxxxxxxxxxxxxxxxxxxxxxxxxxxxxxxxxxxxxxxxxxxxxxxxxxxxxxxxxxxxxxxxxxxxxxxxxxxxxxxxxxxxxxxxxxxxxxxxxxx H
bxx F
b00 J
b00 I
b00000000000000000000000000000000 9
b11 (
bxxxxxxxxxxxxxxxx W
b00000000000000000000000000000000 8
b0000000000000000 1
b00000000 N
b00000000 O
b00000000 P
b00000000 Q
bxxxxxxxxxxxxxxxx T
b00000000000000000000000000000000 :
bxxxxxxxx S
bxxxxxxxx R
$end
#5
1#
#10
0#
#15
1#
0$
1&
b00001111 =
b00010001 >
b0000 ?
b11 @
0A
b0000000000000000000000000000000000000000000000000000000000000000000000000000000000000000000000000000000000000000000000000000000000000000000000000000000000000000000000000000000000000000000000000000000000000000000000000000000000000000000000000000000000000000000000000000000000000000000000000000000000000000000000000000000000000000000000000000000000000000000000000000000000000000000000000000000000000000000000000000000000000000000000000000000000000000000000000000000000000000000000000000000000000000000000000000000000000000000000000000000000000000000000000000000000000000000000000000000000000000000000000000000000000000010000010100010001000100 B
b0000000000000000 T
#20
0#
#21
b00001111 !
b00001111 N
b00001111 Q
b00001111 P
b00010001 "
b00010001 O
b11111110 Q
b00100000 P
#25
1#
b0000000000100000 1
b0000000000100000 *
#26
b00000000000000000000000000000001 :
1<
1;
b00000000000000000000000000000001 8
b11111111 =
b00000001 >
b0000000000000000000000000000000000000000000000000000000000000000000000000000000000000000000000000000000000000000000000000000000000000000000000000000000000000000000000000000000000000000000000000000000000000000000000000000000000000000000000000000000000000000000000000000000000000000000000000000000000000000000000000000000000000000000000000000000000000000000000000000000000000000000000000000000000000000000000000000000000000000000000000000000000000000000000000000000000000000000000000000000000000000000000000000000000000000000000000000000000000000000000000000000000000000010000010100010001000100001010000100001101001111010101010101010000101001 B
#30
0#
#31
b11111111 !
b11111111 N
b11101110 Q
b00010000 P
b00000001 "
b00000001 O
b11111110 Q
b00000000 P
#35
1#
b0000000100000000 T
1+
b0000000000000000 *
#36
b00000000000000000000000000000010 :
0<
0;
b00000000000000000000000000000001 9
b00000101 =
b00000011 >
b01 @
b0000000000000000000000000000000000000000000000000000000000000000000000000000000000000000000000000000000000000000000000000000000000000000000000000000000000000000000000000000000000000000000000000000000000000000000000000000000000000000000000000000000000000000000000000000000000000000000000000000000000000000000000000000000000000000000000000000000000000000000000000000000000000000000000000000000000000000000000000000000000000000000000000000000000000000000000000000000000000000000000000000000000000000000000000000000001000001010001000100010000101000010001010101001001010010001011010110100101101110011101100110000101101100011010010110010000101001 B
#40
0#
#41
b00000101 !
b00000101 N
b00000100 Q
b00000110 P
b00000011 "
b00000011 O
b00000010 Q
b00001000 P
b01 (
#45
1#
b0000000000001000 1
0+
10
#46
b00000000000000000000000000000011 :
b00000000000000000000000000000010 9
b00100000 =
b00010000 >
b0001 ?
b11 @
b0000000000000000000000000000000000000000000000000000000000000000000000000000000000000000000000000000000000000000000000000000000000000000000000000000000000000000000000000000000000000000000000000000000000000000000000000000000000000000000000000000000000000000000000000000000000000000000000000000000000000000000000000000000000000000000000000000000000000000000000000000000000000000000000000000000000000000000000000000000000000000000000000000000000000000000000000000000000000000000000000000000000000000000000000000000000000000000000000000000000000000000000000000000000000000000000000000000000000000000000000000000000000000010100110101010101000010 B
#50
0#
#51
b00100000 !
b00100000 N
b00011101 Q
b00100011 P
b00010000 "
b00010000 O
b00010000 Q
b00110000 P
b0001 )
b11 (
#55
1#
b0000000000010000 T
00
b0000000000010000 *
#56
b00000000000000000000000000000100 :
b00000000000000000000000000000011 9
b00010000 =
b00100000 >
b0000000000000000000000000000000000000000000000000000000000000000000000000000000000000000000000000000000000000000000000000000000000000000000000000000000000000000000000000000000000000000000000000000000000000000000000000000000000000000000000000000000000000000000000000000000000000000000000000000000000000000000000000000000000000000000000000000000000000000000000000000000000000000000000000000000000000000000000000000000000000000000000000000000000000000000000000000000000000000000000000000000000000000000000000000000000000000000000000000000000000000000000000000000001010011010101010100001000101000010011110100011001001100010011110101011100101001 B
#60
0#
#61
b00010000 !
b00010000 N
b00000000 Q
b00100000 P
b00100000 "
b00100000 O
b11110000 Q
b00110000 P
#65
1#
b0000000000010000 1
13
1,
b0000000011110000 *
#66
b00000000000000000000000000000101 :
b00000000000000000000000000000100 9
b0010 ?
1A
b0000000000000000000000000000000000000000000000000000000000000000000000000000000000000000000000000000000000000000000000000000000000000000000000000000000000000000000000000000000000000000000000000000000000000000000000000000000000000000000000000000000000000000000000000000000000000000000000000000000000000000000000000000000000000000000000000000000000000000000000000000000000000000000000000000000000000000000000000000000000000000000000000000000000000000000000000000000000000000000000000000000000000000000000000000000000000000000000000000000000000000000000000000000000000000000000000000000001000001010001000100010001011111010000110100100101001110 B
#70
0#
#71
b0010 )
1'
#75
1#
b0000000000110001 T
0,
b0000000000110001 *
#76
b00000000000000000000000000000110 :
b00000000000000000000000000000101 9
b00000100 >
b0011 ?
b0000000000000000000000000000000000000000000000000000000000000000000000000000000000000000000000000000000000000000000000000000000000000000000000000000000000000000000000000000000000000000000000000000000000000000000000000000000000000000000000000000000000000000000000000000000000000000000000000000000000000000000000000000000000000000000000000000000000000000000000000000000000000000000000000000000000000000000000000000000000000000000000000000000000000000000000000000000000000000000000000000000000000000000000000000000000000000000000000000000000000000000000000000000000000000000000000000000001010011010101010100001001011111010000110100100101001110 B
#80
0#
#81
b00000100 "
b00000100 O
b00001100 Q
b00010100 P
b0011 )
#85
1#
b0000000000110001 1
b0000000000001011 *
#86
b00000000000000000000000000000111 :
b00000000000000000000000000000110 9
b00001010 =
b00000000 >
b0100 ?
b01 @
0A
b0000000000000000000000000000000000000000000000000000000000000000000000000000000000000000000000000000000000000000000000000000000000000000000000000000000000000000000000000000000000000000000000000000000000000000000000000000000000000000000000000000000000000000000000000000000000000000000000000000000000000000000000000000000000000000000000000000000000000000000000000000000000000000000000000000000000000000000000000000000000000000000000000000000000000000000000000000000000000000000000000000000000000000000000000000000000000000000000000000000000000000000000000000000000000000000000000000000000000000000000000100100101001110010000110101111101000001 B
#90
0#
#91
b00001010 !
b00001010 N
b00000110 Q
b00001110 P
b00000000 "
b00000000 O
b00001010 Q
b00001010 P
b0100 )
b01 (
0'
#95
1#
b0000000000001011 T
#96
b00000000000000000000000000001000 :
b00000000000000000000000000000111 9
b0101 ?
b0000000000000000000000000000000000000000000000000000000000000000000000000000000000000000000000000000000000000000000000000000000000000000000000000000000000000000000000000000000000000000000000000000000000000000000000000000000000000000000000000000000000000000000000000000000000000000000000000000000000000000000000000000000000000000000000000000000000000000000000000000000000000000000000000000000000000000000000000000000000000000000000000000000000000000000000000000000000000000000000000000000000000000000000000000000000000000000000000000000000000000000000000000000000000000000000000000000000000000000000000100010001000101010000110101111101000001 B
#100
0#
#101
b0101 )
#105
1#
b0000000000001011 1
b0000000000001001 *
#106
b00000000000000000000000000001001 :
b00000000000000000000000000001000 9
b00000000 =
b00001001 >
b0110 ?
b10 @
b0000000000000000000000000000000000000000000000000000000000000000000000000000000000000000000000000000000000000000000000000000000000000000000000000000000000000000000000000000000000000000000000000000000000000000000000000000000000000000000000000000000000000000000000000000000000000000000000000000000000000000000000000000000000000000000000000000000000000000000000000000000000000000000000000000000000000000000000000000000000000000000000000000000000000000000000000000000000000000000000000000000000000000000000000000000000000000000000000000000000000000000000000000000000000000000000000000000000000000000000000100100101001110010000110101111101000010 B
#110
0#
#111
b00000000 !
b00000000 N
b00000000 Q
b00000000 P
b00001001 "
b00001001 O
b11110111 Q
b00001001 P
b0110 )
b10 (
#115
1#
b0000000000001010 T
b0000000000001010 *
#116
b00000000000000000000000000001010 :
b00000000000000000000000000001001 9
b0111 ?
b0000000000000000000000000000000000000000000000000000000000000000000000000000000000000000000000000000000000000000000000000000000000000000000000000000000000000000000000000000000000000000000000000000000000000000000000000000000000000000000000000000000000000000000000000000000000000000000000000000000000000000000000000000000000000000000000000000000000000000000000000000000000000000000000000000000000000000000000000000000000000000000000000000000000000000000000000000000000000000000000000000000000000000000000000000000000000000000000000000000000000000000000000000000000000000000000000000000000000000000000000100010001000101010000110101111101000010 B
#120
0#
#121
b0111 )
#125
1#
b0000000000001010 1
b0000000000001000 *
#126
b00000000000000000000000000001011 :
b00000000000000000000000000001010 9
b00010000 =
b00010000 >
b1000 ?
b11 @
b0000000000000000000000000000000000000000000000000000000000000000000000000000000000000000000000000000000000000000000000000000000000000000000000000000000000000000000000000000000000000000000000000000000000000000000000000000000000000000000000000000000000000000000000000000000000000000000000000000000000000000000000000000000000000000000000000000000000000000000000000000000000000000000000000000000000000000000000000000000000000000000000000000000000000000000000000000000000000000000000000000000000000000000000000000000000000000000000000000000000000000000000000000000001000011010011010101000000101000011001010111000101110101011000010110110000101001 B
#130
0#
#131
b00010000 !
b00010000 N
b00000111 Q
b00011001 P
b00010000 "
b00010000 O
b00000000 Q
b00100000 P
b1000 )
b11 (
#135
1#
1.
b0000000000000000 *
#136
b00000000000000000000000000001100 :
b00000000000000000000000000001011 9
b00100000 =
b0000000000000000000000000000000000000000000000000000000000000000000000000000000000000000000000000000000000000000000000000000000000000000000000000000000000000000000000000000000000000000000000000000000000000000000000000000000000000000000000000000000000000000000000000000000000000000000000000000000000000000000000000000000000000000000000000000000000000000000000000000000000000000000000000000000000000000000000000000000000000000000000000000000000000000000000000000000000000000000000000000000000000000000000000000000000000000000000000000000000000000010000110100110101010000001010000110011101110010011001010110000101110100011001010111001000101001 B
#140
0#
#141
b00100000 !
b00100000 N
b00010000 Q
b00110000 P
#145
1#
15
1-
0.
#146
b00000000000000000000000000001101 :
b00000000000000000000000000001100 9
b00010000 =
b00100000 >
b0000000000000000000000000000000000000000000000000000000000000000000000000000000000000000000000000000000000000000000000000000000000000000000000000000000000000000000000000000000000000000000000000000000000000000000000000000000000000000000000000000000000000000000000000000000000000000000000000000000000000000000000000000000000000000000000000000000000000000000000000000000000000000000000000000000000000000000000000000000000000000000000000000000000000000000000000000000000000000000000000000000000000000000000000000000000000000000000000000000000000000000000000000000000000000010000110100110101010000001010000110110001100101011100110111001100101001 B
#150
0#
#151
b00010000 !
b00010000 N
b00000000 Q
b00100000 P
b00100000 "
b00100000 O
b11110000 Q
b00110000 P
#155
1#
0-
1/
#156
b00000000000000000000000000001110 :
b00000000000000000000000000001101 9
b00000011 C
b00000100 D
b1001 E
b11 F
0G
b0000000000000000000000000000000000000000000000000000000000000000000000000000000000000000000000000000000000000000000000000000000000000000000000000000000000000000000000000000000000000000000000000000000000000000000000000000000000000000000000000000000000000000000000000000000000000000000000000000000000000000000000000000000000000000000000000000000000000000000000000000000000000000000000000000000000000000000000000000000000000000000000000000000000000000000000000000000000000000000000000000000000000000010000110100110101000100001110010010100000110011001010110011000100101001001010100010100000110100001010110011000100101001001111010011001000110000 H
#160
0#
#161
b00000011 !
b00000011 N
b11100011 Q
b00100011 P
b00000100 "
b00000100 O
b11111111 Q
b00000111 P
b1001 )
#165
1#
05
16
0/
b01 I
#170
0#
#175
1#
b0000000000010100 T
b00000100 K
b00000101 L
b10 I
#180
0#
#185
1#
bxxxxxxxxxxxxxxxx 1
b00 I
b0000000000010100 *
#186
b00000000000000000000000000001111 :
b00000000000000000000000000001110 9
b00 F
b0000000000000000000000000000000000000000000000000000000000000000000000000000000000000000000000000000000000000000000000000000000000000000000000000000000000000000000000000000000000000000000000000000000000000000000000000000000000000000000000000000000000000000000000000000000000000000000000000000000000000000000000000000000000000000000000000000000000000000000000000000000000000000000000000000000000000000000000000000000000000000000000000000000000000000000000000000000000000000000000000000000000000000000000000100001101001101010001000011100100101000010001010101001001010010001000000110100101101110011101100110000101101100011010010110010000101001 H
#190
0#
#191
b00 (
#195
1#
b0000000000010100 1
10
b0000000000000000 *
#200
0#
#205
1#
#210
0#
#215
1#
17
#216
b00000000000000000000000000010000 :
b00000000000000000000000000001111 9
b00000101 D
b1010 E
b11 F
b0000000000000000000000000000000000000000000000000000000000000000000000000000000000000000000000000000000000000000000000000000000000000000000000000000000000000000000000000000000000000000000000000000000000000000000000000000000000000000000000000000000000000000000000000000000000000000000000000000000000000000000000000000000000000000000000000000000000000000000000000000000000000000000000000000000000000000000000000000000000000000000000000000000000000000000000000000000000000000000000000000000000000000000000000000000001000011010011010100010000110001001100000010100000110011001111000011110000110001001010010010101000110101001111010011001100110000 H
#220
0#
#221
b00000101 "
b00000101 O
b11111110 Q
b00001000 P
b1010 )
b11 (
#225
1#
b0000000000011110 T
00
b01 J
#230
0#
#235
1#
bxxxxxxxxxxxxxxxx 1
b00000110 M
b10 J
#240
0#
#245
1#
b0000000000011110 1
b00 J
b0000000000011110 *
#246
b00000000000000000000000000010001 :
b00000000000000000000000000010000 9
b00 F
b0000000000000000000000000000000000000000000000000000000000000000000000000000000000000000000000000000000000000000000000000000000000000000000000000000000000000000000000000000000000000000000000000000000000000000000000000000000000000000000000000000000000000000000000000000000000000000000000000000000000000000000000000000000000000000000000000000000000000000000000000000000000000000000000000000000000000000000000000000000000000000000000000000000000000000000000000000000000000000000000000000000000000000010000110100110101000100001100010011000000101000010001010101001001010010001000000110100101101110011101100110000101101100011010010110010000101001 H
#250
0#
#251
b00 (
#255
1#
10
b0000000000000000 *
#260
0#
#265
1#
#270
0#
#275
1#
#276
b00000000000000000000000000010010 :
b00000000000000000000000000010001 9
b11111011 =
b00000011 >
b1011 ?
b0000000000000000000000000000000000000000000000000000000000000000000000000000000000000000000000000000000000000000000000000000000000000000000000000000000000000000000000000000000000000000000000000000000000000000000000000000000000000000000000000000000000000000000000000000000000000000000000000000000000000000000000000000000000000000000000000000000000000000000000000000000000000000000000000000000000000000000000000000000000000000000000000000000000000000000000000000000000000000000000000000000000000000000000000000000000000000000000000000000001010011010000010100010001000100001010000010110100110101001010110011001100111101001011010011001000101001 B
#280
0#
#281
b11111011 !
b11111011 N
b11110110 Q
b00000000 P
b00000011 "
b00000011 O
b11111000 Q
b11111110 P
b1011 )
b11 (
#285
1#
00
b0000000011111110 *
#286
b00000000000000000000000000010011 :
b00000000000000000000000000010010 9
b01111111 =
b00000001 >
b0000000000000000000000000000000000000000000000000000000000000000000000000000000000000000000000000000000000000000000000000000000000000000000000000000000000000000000000000000000000000000000000000000000000000000000000000000000000000000000000000000000000000000000000000000000000000000000000000000000000000000000000000000000000000000000000000000000000000000000000000000000000000000000000000000000000000000000000000000000000000000000000000000000000000000000000000000000000000000000000000000000000000000000000000101001101000001010001000100010000101000001100010011001000110111001010110011000100100000010011110100011001001100010011110101011100101001 B
#290
0#
#291
b01111111 !
b01111111 N
b01111100 Q
b10000010 P
b00000001 "
b00000001 O
b01111110 Q
b10000000 P
#295
1#
b01111111 U
b00000001 V
b0000000010000000 T
b0000000010000000 W
1,
b0000000010000000 *
#296
b00000000000000000000000000010100 :
b00000000000000000000000000010011 9
b11111011 =
b00000011 >
b1100 ?
b0000000000000000000000000000000000000000000000000000000000000000000000000000000000000000000000000000000000000000000000000000000000000000000000000000000000000000000000000000000000000000000000000000000000000000000000000000000000000000000000000000000000000000000000000000000000000000000000000000000000000000000000000000000000000000000000000000000000000000000000000000000000000000000000000000000000000000000000000000000000000000000000000000000000000000000000000000000000000000000000000000000000000000000000000000000000000000000000000000000001010011010100110101010101000010001010000010110100110101001011010011001100111101001011010011100000101001 B
#300
0#
#301
b11111011 !
b11111011 N
b11111010 Q
b11111100 P
b00000011 "
b00000011 O
b11111000 Q
b11111110 P
b1100 )
#305
1#
b0000000010000000 1
06
14
0,
b0000000011111000 *
#306
b00000000000000000000000000010101 :
b00000000000000000000000000010100 9
b10000000 =
b00000001 >
b0000000000000000000000000000000000000000000000000000000000000000000000000000000000000000000000000000000000000000000000000000000000000000000000000000000000000000000000000000000000000000000000000000000000000000000000000000000000000000000000000000000000000000000000000000000000000000000000000000000000000000000000000000000000000000000000000000000000000000000000000000000000000000000000000000000000000000000000000000000000000000000000000000000000000000000000000000000000000000000000000000000000000000010100110101001101010101010000100010100000101101001100010011001000111000001011010011000100100000010011110100011001001100010011110101011100101001 B
#310
0#
#311
b10000000 !
b10000000 N
b01111101 Q
b10000011 P
b00000001 "
b00000001 O
b01111111 Q
b10000001 P
#315
1#
b10000000 U
b1111111101111111 T
b1111111101111111 W
1,
b0000000001111111 *
#316
b00000000000000000000000000010110 :
b00000000000000000000000000010101 9
b00000101 =
b00000011 >
b1111 ?
b0000000000000000000000000000000000000000000000000000000000000000000000000000000000000000000000000000000000000000000000000000000000000000000000000000000000000000000000000000000000000000000000000000000000000000000000000000000000000000000000000000000000000000000000000000000000000000000000000000000000000000000000000000000000000000000000000000000000000000000000000000000000000000000000000000000000000000000000000000000000000000000000000000000000000000000000000000000000000000000000000000000000000000010000010101001001001001010101000100100001011111010001000100010101000110010000010101010101001100010101000010100001000101010100100101001000101001 B
#320
0#
#321
b00000101 !
b00000101 N
b00000100 Q
b00000110 P
b00000011 "
b00000011 O
b00000010 Q
b00001000 P
b1111 )
#325
1#
b1111111101111111 1
16
04
0,
10
b0000000000000000 *
#326
b00000000000000000000000000010111 :
b00000000000000000000000000010110 9
0&
b11110000 =
b00001111 >
b0000 ?
b0000000000000000000000000000000000000000000000000000000000000000000000000000000000000000000000000000000000000000000000000000000000000000000000000000000000000000000000000000000000000000000000000000000000000000000000000000000000000000000000000000000000000000000000000000000000000000000000000000000000000000000000000000000000000000000000000000000000000000000000000000000000000000000000000000000000000000000000000000000000000000000000000000000000000000000000000000000000000000000000000000000000000000000000000000000000000000000000000000000000000000000000000000000000000000000000000000000000000000000000000000000000000000010000010100111001000100 B
#330
0#
#331
b11110000 !
b11110000 N
b11101101 Q
b11110011 P
b00001111 "
b00001111 O
b11100001 Q
b11111111 P
b0000 )
#335
1#
b0000000000000000 T
00
#336
b00000000000000000000000000011000 :
b00000000000000000000000000010111 9
b0001 ?
b0000000000000000000000000000000000000000000000000000000000000000000000000000000000000000000000000000000000000000000000000000000000000000000000000000000000000000000000000000000000000000000000000000000000000000000000000000000000000000000000000000000000000000000000000000000000000000000000000000000000000000000000000000000000000000000000000000000000000000000000000000000000000000000000000000000000000000000000000000000000000000000000000000000000000000000000000000000000000000000000000000000000000000000000000000000000000000000000000000000000000000000000000000000000000000000000000000000000000000000000000000000001001110010000010100111001000100 B
#340
0#
#341
b0001 )
#345
1#
b0000000000000000 1
b1111111111111111 *
#346
b00000000000000000000000000011001 :
b00000000000000000000000000011000 9
b0010 ?
b0000000000000000000000000000000000000000000000000000000000000000000000000000000000000000000000000000000000000000000000000000000000000000000000000000000000000000000000000000000000000000000000000000000000000000000000000000000000000000000000000000000000000000000000000000000000000000000000000000000000000000000000000000000000000000000000000000000000000000000000000000000000000000000000000000000000000000000000000000000000000000000000000000000000000000000000000000000000000000000000000000000000000000000000000000000000000000000000000000000000000000000000000000000000000000000000000000000000000000000000000000000000000000000000000100111101010010 B
#350
0#
#351
b0010 )
#355
1#
b0000000011111111 T
b0000000011111111 *
#356
b00000000000000000000000000011010 :
b00000000000000000000000000011001 9
b0011 ?
b0000000000000000000000000000000000000000000000000000000000000000000000000000000000000000000000000000000000000000000000000000000000000000000000000000000000000000000000000000000000000000000000000000000000000000000000000000000000000000000000000000000000000000000000000000000000000000000000000000000000000000000000000000000000000000000000000000000000000000000000000000000000000000000000000000000000000000000000000000000000000000000000000000000000000000000000000000000000000000000000000000000000000000000000000000000000000000000000000000000000000000000000000000000000000000000000000000000000000000000000000000000000000000010011100100111101010010 B
#360
0#
#361
b0011 )
#365
1#
b0000000011111111 1
b1111111100000000 *
#366
b00000000000000000000000000011011 :
b00000000000000000000000000011010 9
b10101010 =
b01010101 >
b0100 ?
b0000000000000000000000000000000000000000000000000000000000000000000000000000000000000000000000000000000000000000000000000000000000000000000000000000000000000000000000000000000000000000000000000000000000000000000000000000000000000000000000000000000000000000000000000000000000000000000000000000000000000000000000000000000000000000000000000000000000000000000000000000000000000000000000000000000000000000000000000000000000000000000000000000000000000000000000000000000000000000000000000000000000000000000000000000000000000000000000000000000000000000000000000000000000000000000000000000000000000000000000000000000000000000010110000100111101010010 B
#370
0#
#371
b10101010 !
b10101010 N
b10011011 Q
b10111001 P
b01010101 "
b01010101 O
b01010101 Q
b11111111 P
b0100 )
#375
1#
b0000000011111111 *
#376
b00000000000000000000000000011100 :
b00000000000000000000000000011011 9
b0101 ?
b0000000000000000000000000000000000000000000000000000000000000000000000000000000000000000000000000000000000000000000000000000000000000000000000000000000000000000000000000000000000000000000000000000000000000000000000000000000000000000000000000000000000000000000000000000000000000000000000000000000000000000000000000000000000000000000000000000000000000000000000000000000000000000000000000000000000000000000000000000000000000000000000000000000000000000000000000000000000000000000000000000000000000000000000000000000000000000000000000000000000000000000000000000000000000000000000000000000000000000000000000000000001011000010011100100111101010010 B
#380
0#
#381
b0101 )
#385
1#
b1111111100000000 *
#386
b00000000000000000000000000011101 :
b00000000000000000000000000011100 9
b10100101 =
b00000000 >
b0110 ?
b01 @
b0000000000000000000000000000000000000000000000000000000000000000000000000000000000000000000000000000000000000000000000000000000000000000000000000000000000000000000000000000000000000000000000000000000000000000000000000000000000000000000000000000000000000000000000000000000000000000000000000000000000000000000000000000000000000000000000000000000000000000000000000000000000000000000000000000000000000000000000000000000000000000000000000000000000000000000000000000000000000000000000000000000000000000000000000000000000000000000000000000000000000000000000000000000000000000000000000000000000000000000000000100111001001111010101000101111101000001 B
#390
0#
#391
b10100101 !
b10100101 N
b01010000 Q
b11111010 P
b00000000 "
b00000000 O
b10100101 Q
b10100101 P
b0110 )
b01 (
#395
1#
b0000000001011010 T
b1111111101011010 *
#396
b00000000000000000000000000011110 :
b00000000000000000000000000011101 9
b00000000 =
b01011010 >
b0111 ?
b10 @
b0000000000000000000000000000000000000000000000000000000000000000000000000000000000000000000000000000000000000000000000000000000000000000000000000000000000000000000000000000000000000000000000000000000000000000000000000000000000000000000000000000000000000000000000000000000000000000000000000000000000000000000000000000000000000000000000000000000000000000000000000000000000000000000000000000000000000000000000000000000000000000000000000000000000000000000000000000000000000000000000000000000000000000000000000000000000000000000000000000000000000000000000000000000000000000000000000000000000000000000000000100111001001111010101000101111101000010 B
#400
0#
#401
b00000000 !
b00000000 N
b00000000 Q
b00000000 P
b01011010 "
b01011010 O
b10100110 Q
b01011010 P
b0111 )
b10 (
#405
1#
b0000000001011010 1
b1111111110100101 *
#406
b00000000000000000000000000011111 :
b00000000000000000000000000011110 9
b10101010 =
b00000000 >
b1000 ?
b01 @
b0000000000000000000000000000000000000000000000000000000000000000000000000000000000000000000000000000000000000000000000000000000000000000000000000000000000000000000000000000000000000000000000000000000000000000000000000000000000000000000000000000000000000000000000000000000000000000000000000000000000000000000000000000000000000000000000000000000000000000000000000000000000000000000000000000000000000000000000000000000000000000000000000000000000000000000000000000000000000000000000000000000000000000000000000000000000000000000000000000000000000000000000000000000000000000000000000000000000000000000000000101001101001000010100100101111101000001 B
#410
0#
#411
b10101010 !
b10101010 N
b01010000 Q
b00000100 P
b00000000 "
b00000000 O
b10101010 Q
b10101010 P
b1000 )
b01 (
#415
1#
b0000000001010101 T
b0000000001010101 *
